Contrasts
…
## See spec(...) for full column specifications.

hers_nodi <- filter(hers, diabetes == "no")

## # A tibble: 2,032 x 37
##    HT      age raceth nonwhite smoking drinkany exercise physact globrat
##    <chr> <int> <chr>  <chr>    <chr>   <chr>    <chr>    <chr>   <chr>  
##  1 plac…    70 Afric… yes      no      no       no       much m… good   
##  2 plac…    62 Afric… yes      no      no       no       much l… good   
##  3 plac…    64 White  no       yes     yes      no       much l… good   
##  4 plac…    65 White  no       no      no       no       somewh… good   
##  5 horm…    68 Afric… yes      no      yes      no       about … good   
##  6 horm…    69 White  no       no      no       yes      much m… very g…
##  7 horm…    61 White  no       no      yes      yes      about … very g…
##  8 horm…    62 White  no       yes     yes      no       somewh… good   
##  9 plac…    72 Afric… yes      no      no       no       about … fair   
## 10 horm…    73 White  no       no      no       no       somewh… good   
## # ... with 2,022 more rows, and 28 more variables: poorfair <chr>,
## #   medcond <int>, htnmeds <chr>, statins <chr>, diabetes <chr>,
## #   dmpills <chr>, insulin <chr>, weight <dbl>, BMI <dbl>, waist <dbl>,
## #   WHR <dbl>, glucose <int>, weight1 <dbl>, BMI1 <dbl>, waist1 <dbl>,
## #   WHR1 <dbl>, glucose1 <int>, tchol <int>, LDL <dbl>, HDL <int>,
## #   TG <int>, tchol1 <int>, LDL1 <dbl>, HDL1 <int>, TG1 <int>, SBP <int>,
## #   DBP <int>, age10 <dbl>
…
